Zach Jimenez

Tristan Mccullough

Jak Cochran

Callum Donovan

Tristan Mccullough

Cole Baldwin
Tristan Mccullough
Sean Leon

Aiden Mccarty

Edward Berger

Nathan Skinner

Faith Eaton

Cole Baldwin

Tristan Mccullough

Omar Blevins
